[
    "yes!",
    "no!",
    "indeed!",
    "no way!",
    "totally!",
    "definitely!",
    "not at all!",
    "totes!",
    "never gonna happen!",
    "don't think so!",
    "I think so!",
    "maybe!",
    "probably!",
    "possible!",
    "it is not impossible!",
    "impossible!",
    "do you really think that's going to happen?",
    "are you sure?",
    "maybe in your dreams!",
    "I believe so!",
    "I don't believe so!",
    "you're making things up!",
    "i doubt it!",
    "maybe yes",
    "probably no",
    "I guess that's possible!",
    "I guess that's not possible!",
    "It is certain",
    "It is decidedly so",
    "Without a doubt",
    "You may rely on it",
    "As I see it, yes",
    "Most likely",
    "Outlook good",
    "Signs point to yes",
    "Reply hazy try again",
    "Ask again later",
    "Better not tell you now",
    "Cannot predict now",
    "Concentrate and ask again",
    "Don't count on it",
    "My reply is no",
    "My sources say no",
    "Outlook not so good",
    "Very doubtful"
]